C:\JAJAH\Uni\HW_OOP\UserManagement\src\main\java\com\sarocha\usermanagement\UserManagement.java
C:\JAJAH\Uni\HW_OOP\UserManagement\src\main\java\com\sarocha\usermanagement\User.java
C:\JAJAH\Uni\HW_OOP\UserManagement\src\main\java\com\sarocha\usermanagement\testUserService.java
C:\JAJAH\Uni\HW_OOP\UserManagement\src\main\java\com\sarocha\usermanagement\UserService.java
